<?xml version="1.0" encoding="utf-8"?>
<!-- Generated by IcoMoon.io -->
<!DOCTYPE svg PUBLIC "-//W3C//DTD SVG 1.1//EN" "http://www.w3.org/Graphics/SVG/1.1/DTD/svg11.dtd">
<svg version="1.1" xmlns="http://www.w3.org/2000/svg" xmlns:xlink="http://www.w3.org/1999/xlink" width="32" height="32" viewBox="0 0 32 32">
<path d="M16.001 32c-8.823 0-16.001-7.178-16.001-16s7.178-16 16.001-16c8.822 0 16 7.178 16 16s-7.178 16-16 16zM16.001 0.63c-8.476 0-15.371 6.895-15.371 15.37s6.895 15.37 15.371 15.37c8.475 0 15.37-6.895 15.37-15.37s-6.895-15.37-15.37-15.37z"></path>
<path d="M22.715 6.687h-12.815c-0.174 0-0.315 0.141-0.315 0.315v18.381c0 0.174 0.141 0.315 0.315 0.315h9.279c0.087 0 0.166-0.035 0.223-0.092l3.535-3.535c0.057-0.057 0.092-0.136 0.092-0.223v-14.845c0-0.174-0.141-0.315-0.315-0.315zM18.864 25.068h-8.649v-17.751h12.185v14.215h-3.221c-0.174 0-0.315 0.141-0.315 0.315v3.221zM21.955 22.162l-2.46 2.46v-2.46h2.46z"></path>
<path d="M12.73 12.672c-0.056 0-0.112-0.015-0.163-0.046l-0.86-0.522c-0.149-0.090-0.196-0.284-0.106-0.433s0.284-0.196 0.433-0.106l0.594 0.36 0.946-1.515c0.092-0.147 0.287-0.193 0.434-0.1s0.193 0.287 0.1 0.434l-1.111 1.779c-0.060 0.096-0.162 0.148-0.268 0.148z"></path>
<path d="M20.738 11.982h-5.867c-0.174 0-0.315-0.141-0.315-0.315s0.141-0.315 0.315-0.315h5.867c0.174 0 0.315 0.141 0.315 0.315s-0.141 0.315-0.315 0.315z"></path>
<path d="M12.73 16.315c-0.056 0-0.112-0.015-0.163-0.046l-0.86-0.522c-0.149-0.090-0.196-0.284-0.106-0.433s0.284-0.196 0.433-0.106l0.594 0.36 0.946-1.515c0.092-0.147 0.287-0.193 0.434-0.1s0.193 0.287 0.1 0.434l-1.111 1.779c-0.060 0.096-0.162 0.148-0.268 0.148z"></path>
<path d="M20.738 15.625h-5.867c-0.174 0-0.315-0.141-0.315-0.315s0.141-0.315 0.315-0.315h5.867c0.174 0 0.315 0.141 0.315 0.315s-0.141 0.315-0.315 0.315z"></path>
<path d="M12.73 19.958c-0.056 0-0.112-0.015-0.163-0.046l-0.86-0.522c-0.149-0.090-0.196-0.284-0.106-0.433s0.284-0.196 0.433-0.106l0.594 0.36 0.946-1.515c0.092-0.147 0.287-0.192 0.434-0.1s0.193 0.287 0.1 0.434l-1.111 1.779c-0.060 0.096-0.162 0.148-0.268 0.148z"></path>
<path d="M20.738 19.268h-5.867c-0.174 0-0.315-0.141-0.315-0.315s0.141-0.315 0.315-0.315h5.867c0.174 0 0.315 0.141 0.315 0.315s-0.141 0.315-0.315 0.315z"></path>
</svg>
