<?xml version="1.0" encoding="utf-8"?>
<!-- Generated by IcoMoon.io -->
<!DOCTYPE svg PUBLIC "-//W3C//DTD SVG 1.1//EN" "http://www.w3.org/Graphics/SVG/1.1/DTD/svg11.dtd">
<svg version="1.1" xmlns="http://www.w3.org/2000/svg" xmlns:xlink="http://www.w3.org/1999/xlink" width="32" height="32" viewBox="0 0 32 32">
<path fill="#000" d="M32 29.469l-13.469-13.469 13.469-13.469-2.531-2.531-13.469 13.469-13.469-13.469-2.531 2.531 13.469 13.469-13.469 13.469 2.531 2.531 13.469-13.469 13.469 13.469z"></path>
</svg>
